{"photos":{"page":1,"pages":13536,"perpage":10,"total":135355,"photo":[{"id":"51444321312","owner":"192779884@N06","secret":"a4ab610c16","server":"65535","farm":66,"title":"If only cats grew into kittens. #cats #catsofinstagram #catstagram #chartreux #catlover #instacat #instapet #CatLovesBest","ispublic":1,"isfriend":0,"isfamily":0},{"id":"51444310452","owner":"148179219@N03","secret":"462d2d273d","server":"65535","farm":66,"title":"poedie 3 (15)","ispublic":1,"isfriend":0,"isfamily":0},{"id":"51446028565","owner":"141888764@N07","secret":"391c054bef","server":"65535","farm":66,"title":"","ispublic":1,"isfriend":0,"isfamily":0},{"id":"51445244848","owner":"154608762@N02","secret":"dd209d7abd","server":"65535","farm":66,"title":"lil' Kraken~*","ispublic":1,"isfriend":0,"isfamily":0},{"id":"51444232187","owner":"30632446@N06","secret":"b50727a490","server":"65535","farm":66,"title":"Hercules the kitten. Helsinki, Finland 2017","ispublic":1,"isfriend":0,"isfamily":0},{"id":"51445205348","owner":"153237179@N02","secret":"20f14e619a","server":"65535","farm":66,"title":"SIGHTING young tabby cat\/ kitten w\/ red collar in #Dalhousie. Pls rt, share, watch, help Photos from Jasmine Lili's postvpdescription by Photos from Jasmine Lili's post SIGHTING young tabby cat\/ kitten w\/ red collar in #Dalhousie. Pls rt, share, watch, he","ispublic":1,"isfriend":0,"isfamily":0},{"id":"51445205098","owner":"185160802@N05","secret":"05654a1ba7","server":"65535","farm":66,"title":"Kitty!","ispublic":1,"isfriend":0,"isfamily":0},{"id":"51444199447","owner":"185160802@N05","secret":"d314110b09","server":"65535","farm":66,"title":"Kitty!","ispublic":1,"isfriend":0,"isfamily":0},{"id":"51444851191","owner":"8529568@N08","secret":"86a8e01c65","server":"65535","farm":66,"title":"AC Annual 4 - Kitten and the Catman","ispublic":1,"isfriend":0,"isfamily":0},{"id":"51445550279","owner":"152477893@N02","secret":"9be283cf5f","server":"65535","farm":66,"title":"Cat","ispublic":1,"isfriend":0,"isfamily":0}]},"stat":"ok"}